<svg width="20" height="20" viewBox="0 0 20 20" fill="none" xmlns="http://www.w3.org/2000/svg">
<g clip-path="url(#clip0)">
<path d="M5.00002 14.2998H4.71007L4.50505 14.5049L2.36669 16.6432V3.33317C2.36669 2.8031 2.80329 2.3665 3.33335 2.3665H16.6667C17.1968 2.3665 17.6334 2.8031 17.6334 3.33317V13.3332C17.6334 13.8632 17.1968 14.2998 16.6667 14.2998H5.00002Z" stroke="#109CF1" stroke-width="1.4"/>
</g>
<defs>
<clipPath id="clip0">
<rect width="20" height="20" fill="white"/>
</clipPath>
</defs>
</svg>
